Technique to Embed Color Palettes to Multidimensional Space • palette2vec
…
Installation

You can install the development version from GitHub with:

# install.packages("devtools")
devtools::install_github("EmilHvitfeldt/palette2vec")

Examples

The main function in this package is palette2vec() it takes a named list of color palettes and returns a tibble of metrics for each palettes.

library(palette2vec)

palette2vec(color_hex_palettes)
#> # A tibble: 993 x 29
#>    name  n_cols linear linear_split min_dist max_dist mean_dist min_saturation
#>    <chr>  <int>  <dbl>        <dbl>    <dbl>    <dbl>     <dbl>          <dbl>
#>  1 Ann …      5  0.935        0.920     9.42     48.0      25.5           0   
#>  2 i he…      5  1.00         1         3.92     26.6      13.6          50.7 
#>  3 the …      5  1.00         1         5.54     30.5      15.1          15.3 
#>  4 my m…      5  1.00         1         4.72     21.3      10.6          45.4 
#>  5 hty        5  0.845        0.949     3.99     38.4      17.3           0   
#>  6 my h…      5  1.00         1         6.19     36.4      21.1          11.0 
#>  7 my s…      5  1.00         1         6.47     28.6      14.5          28.5 
#>  8 a w …      5  1.00         1         4.50     21.1      10.5          22.1 
#>  9 you …      5  1.00         1         5.38     34.4      17.6           8.66
#> 10 just…      5  1.00         1         6.01     33.9      18.3          11.2 
#> # … with 983 more rows, and 21 more variables: max_saturation <dbl>,
#> #   mean_saturation <dbl>, min_lightness <dbl>, max_lightness <dbl>,
#> #   mean_lightness <dbl>, contains_min_red <dbl>, contains_min_orange <dbl>,
#> #   contains_min_yellow <dbl>, contains_min_green <dbl>,
#> #   contains_min_turqouise <dbl>, contains_min_blue <dbl>,
#> #   contains_min_purple <dbl>, contains_min_pink <dbl>, contains_all_red <dbl>,
#> #   contains_all_orange <dbl>, contains_all_yellow <dbl>,
#> #   contains_all_green <dbl>, contains_all_turqouise <dbl>,
#> #   contains_all_blue <dbl>, contains_all_purple <dbl>, contains_all_pink <dbl>
…
Which can be passed to palette2vec() as well.

palette2vec(paletteer_palettes())
#> # A tibble: 1,711 x 29
#>    name  n_cols linear linear_split min_dist max_dist mean_dist min_saturation
#>    <chr>  <int>  <dbl>        <dbl>    <dbl>    <dbl>     <dbl>          <dbl>
#>  1 awto…      8  0.963        0.975     9.52     67.4      40.5           16.8
#>  2 awto…      8  0.688        0.749    25.9      89.8      47.6            0  
#>  3 awto…     16  0.840        0.921    10.3      87.2      42.2            0  
#>  4 awto…      4  0.998        1        10.5      62.4      32.3            0  
#>  5 awto…      9  0.814        0.962    20.6      72.8      43.5            0  
#>  6 awto…      6  0.674        1        27.4      73.3      47.8           54.1
#>  7 base…     10  0.857        0.889    15.6      77.0      41.1           20.9
#>  8 base…     10  0.820        0.827    13.4      83.9      45.3           28.0
#>  9 base…     10  0.791        0.736    11.8      79.4      43.9           35.3
#> 10 base…     10  0.823        0.975    15.9      88.8      46.4           41.5
#> # … with 1,701 more rows, and 21 more variables: max_saturation <dbl>,
#> #   mean_saturation <dbl>, min_lightness <dbl>, max_lightness <dbl>,
#> #   mean_lightness <dbl>, contains_min_red <dbl>, contains_min_orange <dbl>,
#> #   contains_min_yellow <dbl>, contains_min_green <dbl>,
#> #   contains_min_turqouise <dbl>, contains_min_blue <dbl>,
#> #   contains_min_purple <dbl>, contains_min_pink <dbl>, contains_all_red <dbl>,
#> #   contains_all_orange <dbl>, contains_all_yellow <dbl>,
#> #   contains_all_green <dbl>, contains_all_turqouise <dbl>,
#> #   contains_all_blue <dbl>, contains_all_purple <dbl>, contains_all_pink <dbl>
…
